logs/tc015_stress_test.log
# vsim -c -coverage -suppress 3009 -t 1ps -do "coverage save -onexit coverage_db/tc015_stress_test.ucdb; run -all; quit" tb_top "+UVM_TESTNAME=tc015_stress_test" -l logs\tc015_stress_test.log 
# Start time: 09:06:20 on Jun 07,2026
# ** Note: (vsim-8009) Loading existing optimized design _opt
# //  Questa Sim-64
# //  Version 10.7c win64 Aug 18 2018
# //
# //  Copyright 1991-2018 Mentor Graphics Corporation
# //  All Rights Reserved.
# //
# //  QuestaSim and its associated documentation contain trade
# //  secrets and commercial or financial information that are the property of
# //  Mentor Graphics Corporation and are privileged, confidential,
# //  and exempt from disclosure under the Freedom of Information Act,
# //  5 U.S.C. Section 552. Furthermore, this information
# //  is prohibited from disclosure under the Trade Secrets Act,
# //  18 U.S.C. Section 1905.
# //
# Loading sv_std.std
# Loading work.axi4lite_if(fast)
# Loading mtiUvm.uvm_pkg
# Loading work.axi4lite_pkg(fast)
# Loading work.tb_top_sv_unit(fast)
# Loading work.tb_top(fast)
# Loading work.axi4lite_slave_bfm(fast)
# Loading mtiUvm.questa_uvm_pkg(fast)
# ** Warning: (vsim-8637) A modport ('monitor_mp') should not be used in a hierarchical path.
#    Time: 0 ps  Iteration: 0  Region: /axi4lite_pkg File: ../tb/monitor/axi4lite_monitor.sv Line: 51
# ** Warning: (vsim-8637) A modport ('master_mp') should not be used in a hierarchical path.
#    Time: 0 ps  Iteration: 0  Region: /axi4lite_pkg::axi4lite_driver File: ../tb/driver/axi4lite_driver.sv Line: 39
# Loading C:/questasim64_10.7c/uvm-1.1d\win64\uvm_dpi.dll
# coverage save -onexit coverage_db/tc015_stress_test.ucdb
#  run -all
# ----------------------------------------------------------------
# UVM-1.1d
# (C) 2007-2013 Mentor Graphics Corporation
# (C) 2007-2013 Cadence Design Systems, Inc.
# (C) 2006-2013 Synopsys, Inc.
# (C) 2011-2013 Cypress Semiconductor Corp.
# ----------------------------------------------------------------
# 
#   ***********       IMPORTANT RELEASE NOTES         ************
# 
#   You are using a version of the UVM library that has been compiled
#   with `UVM_NO_DEPRECATED undefined.
#   See http://www.eda.org/svdb/view.php?id=3313 for more details.
# 
#   You are using a version of the UVM library that has been compiled
#   with `UVM_OBJECT_MUST_HAVE_CONSTRUCTOR undefined.
#   See http://www.eda.org/svdb/view.php?id=3770 for more details.
# 
#       (Specify +UVM_NO_RELNOTES to turn off this notice)
# 
# UVM_INFO verilog_src/questa_uvm_pkg-1.2/src/questa_uvm_pkg.sv(215) @ 0: reporter [Questa UVM] QUESTA_UVM-1.2.3
# UVM_INFO verilog_src/questa_uvm_pkg-1.2/src/questa_uvm_pkg.sv(216) @ 0: reporter [Questa UVM]  questa_uvm::init(+struct)
# UVM_INFO @ 0: reporter [RNTST] Running test tc015_stress_test...
# UVM_INFO ../tb/test/axi4lite_base_test.sv(63) @ 0: uvm_test_top [tc015_stress_test] Build complete: num_transactions=20 seed=0
# UVM_INFO @ 0: reporter [UVMTOP] UVM testbench topology:
# --------------------------------------------------------------
# Name                       Type                    Size  Value
# --------------------------------------------------------------
# uvm_test_top               tc015_stress_test       -     @472 
#   env                      axi4lite_env            -     @486 
#     agent                  axi4lite_agent          -     @496 
#       ap                   uvm_analysis_port       -     @526 
#       drv                  axi4lite_driver         -     @653 
#         rsp_port           uvm_analysis_port       -     @668 
#         seq_item_port      uvm_seq_item_pull_port  -     @660 
#       mon                  axi4lite_monitor        -     @535 
#         ap                 uvm_analysis_port       -     @678 
#       seqr                 axi4lite_sequencer      -     @544 
#         rsp_export         uvm_analysis_export     -     @551 
#         seq_item_export    uvm_seq_item_pull_imp   -     @645 
#         arbitration_queue  array                   0     -    
#         lock_queue         array                   0     -    
#         num_last_reqs      integral                32    'd1  
#         num_last_rsps      integral                32    'd1  
#     coverage               axi4lite_coverage       -     @510 
#       analysis_imp         uvm_analysis_imp        -     @517 
#     scoreboard             axi4lite_scoreboard     -     @503 
#       analysis_export      uvm_analysis_imp        -     @692 
# --------------------------------------------------------------
# 
# UVM_INFO ../tb/agent/axi4lite_agent.sv(69) @ 0: uvm_test_top.env.agent [axi4lite_agent] Agent mode: UVM_ACTIVE
# UVM_INFO ../tb/env/axi4lite_env.sv(64) @ 0: uvm_test_top.env [axi4lite_env] Environment topology:
# UVM_INFO @ 0: reporter [UVMTOP] UVM testbench topology:
# --------------------------------------------------------------
# Name                       Type                    Size  Value
# --------------------------------------------------------------
# uvm_test_top               tc015_stress_test       -     @472 
#   env                      axi4lite_env            -     @486 
#     agent                  axi4lite_agent          -     @496 
#       ap                   uvm_analysis_port       -     @526 
#       drv                  axi4lite_driver         -     @653 
#         rsp_port           uvm_analysis_port       -     @668 
#         seq_item_port      uvm_seq_item_pull_port  -     @660 
#       mon                  axi4lite_monitor        -     @535 
#         ap                 uvm_analysis_port       -     @678 
#       seqr                 axi4lite_sequencer      -     @544 
#         rsp_export         uvm_analysis_export     -     @551 
#         seq_item_export    uvm_seq_item_pull_imp   -     @645 
#         arbitration_queue  array                   0     -    
#         lock_queue         array                   0     -    
#         num_last_reqs      integral                32    'd1  
#         num_last_rsps      integral                32    'd1  
#     coverage               axi4lite_coverage       -     @510 
#       analysis_imp         uvm_analysis_imp        -     @517 
#     scoreboard             axi4lite_scoreboard     -     @503 
#       analysis_export      uvm_analysis_imp        -     @692 
# --------------------------------------------------------------
# 
# UVM_INFO ../tb/test/axi4lite_base_test.sv(90) @ 0: uvm_test_top [tc015_stress_test] Waiting for reset deassertion...
# UVM_INFO ../tb/tb_top.sv(99) @ 95000: reporter [TB_TOP] Reset deasserted
# UVM_INFO ../tb/test/axi4lite_base_test.sv(95) @ 125000: uvm_test_top [tc015_stress_test] Reset deasserted. Starting test.
# UVM_INFO ../tb/test/axi4lite_tests.sv(331) @ 125000: uvm_test_top [tc015_stress_test] === TC015: Stress Test (1000 transactions) ===
# UVM_INFO ../tb/sequence/axi4lite_sequences.sv(265) @ 125000: uvm_test_top.env.agent.seqr@@seq [tc015_stress_seq] TC015: Stress Test - 1000 transactions
# UVM_INFO ../tb/driver/axi4lite_driver.sv(218) @ 175000: uvm_test_top.env.agent.drv [axi4lite_driver] [READ ] ADDR=0x00000938 RDATA=0x00000000 RRESP=AXI_OKAY
# UVM_INFO ../tb/sequence/axi4lite_sequences.sv(270) @ 175000: uvm_test_top.env.agent.seqr@@seq [tc015_stress_seq] Stress: 0/1000 transactions sent
# UVM_INFO ../tb/driver/axi4lite_driver.sv(162) @ 235000: uvm_test_top.env.agent.drv [axi4lite_driver] [WRITE] ADDR=0x00000128 DATA=0x00000dc4 WSTRB=4'b0111 BRESP=AXI_OKAY
# UVM_INFO ../tb/driver/axi4lite_driver.sv(162) @ 295000: uvm_test_top.env.agent.drv [axi4lite_driver] [WRITE] ADDR=0x00000638 DATA=0x0000e8b6 WSTRB=4'b1111 BRESP=AXI_OKAY
# UVM_INFO ../tb/driver/axi4lite_driver.sv(162) @ 355000: uvm_test_top.env.agent.drv [axi4lite_driver] [WRITE] ADDR=0x00000398 DATA=0x00001ae7 WSTRB=4'b1001 BRESP=AXI_OKAY
# UVM_INFO ../tb/driver/axi4lite_driver.sv(218) @ 395000: uvm_test_top.env.agent.drv [axi4lite_driver] [READ ] ADDR=0x00000be0 RDATA=0x00000000 RRESP=AXI_OKAY
# UVM_INFO ../tb/driver/axi4lite_driver.sv(218) @ 435000: uvm_test_top.env.agent.drv [axi4lite_driver] [READ ] ADDR=0x0000063c RDATA=0x00000000 RRESP=AXI_OKAY
# UVM_INFO ../tb/driver/axi4lite_driver.sv(162) @ 485000: uvm_test_top.env.agent.drv [axi4lite_driver] [WRITE] ADDR=0x00000438 DATA=0x00002634 WSTRB=4'b0001 BRESP=AXI_OKAY
# UVM_INFO ../tb/driver/axi4lite_driver.sv(218) @ 525000: uvm_test_top.env.agent.drv [axi4lite_driver] [READ ] ADDR=0x00000ed4 RDATA=0x00000000 RRESP=AXI_OKAY
# UVM_INFO ../tb/driver/axi4lite_driver.sv(218) @ 575000: uvm_test_top.env.agent.drv [axi4lite_driver] [READ ] ADDR=0x00000344 RDATA=0x00000000 RRESP=AXI_OKAY
# UVM_INFO ../tb/driver/axi4lite_driver.sv(218) @ 625000: uvm_test_top.env.agent.drv [axi4lite_driver] [READ ] ADDR=0x00000bfc RDATA=0x00000000 RRESP=AXI_OKAY
# UVM_INFO ../tb/driver/axi4lite_driver.sv(162) @ 675000: uvm_test_top.env.agent.drv [axi4lite_driver] [WRITE] ADDR=0x0000037c DATA=0x000078cc WSTRB=4'b0101 BRESP=AXI_OKAY
# UVM_INFO ../tb/driver/axi4lite_driver.sv(218) @ 715000: uvm_test_top.env.agent.drv [axi4lite_driver] [READ ] ADDR=0x00000d8c RDATA=0x00000000 RRESP=AXI_OKAY
# UVM_INFO ../tb/driver/axi4lite_driver.sv(162) @ 765000: uvm_test_top.env.agent.drv [axi4lite_driver] [WRITE] ADDR=0x00000498 DATA=0x0000144b WSTRB=4'b0001 BRESP=AXI_OKAY
# UVM_INFO ../tb/driver/axi4lite_driver.sv(162) @ 815000: uvm_test_top.env.agent.drv [axi4lite_driver] [WRITE] ADDR=0x00000334 DATA=0x0000cc0f WSTRB=4'b1101 BRESP=AXI_OKAY
# UVM_INFO ../tb/driver/axi4lite_driver.sv(162) @ 865000: uvm_test_top.env.agent.drv [axi4lite_driver] [WRITE] ADDR=0x00000cb0 DATA=0x00003fea WSTRB=4'b0011 BRESP=AXI_OKAY
# UVM_INFO ../tb/driver/axi4lite_driver.sv(218) @ 905000: uvm_test_top.env.agent.drv [axi4lite_driver] [READ ] ADDR=0x00000adc RDATA=0x00000000 RRESP=AXI_OKAY
# UVM_INFO ../tb/driver/axi4lite_driver.sv(218) @ 945000: uvm_test_top.env.agent.drv [axi4lite_driver] [READ ] ADDR=0x00000394 RDATA=0x00000000 RRESP=AXI_OKAY
# UVM_INFO ../tb/driver/axi4lite_driver.sv(162) @ 995000: uvm_test_top.env.agent.drv [axi4lite_driver] [WRITE] ADDR=0x00000c0c DATA=0x000001e2 WSTRB=4'b0010 BRESP=AXI_OKAY
# UVM_INFO ../tb/driver/axi4lite_driver.sv(218) @ 1035000: uvm_test_top.env.agent.drv [axi4lite_driver] [READ ] ADDR=0x00000918 RDATA=0x00000000 RRESP=AXI_OKAY
# UVM_INFO ../tb/driver/axi4lite_driver.sv(162) @ 1095000: uvm_test_top.env.agent.drv [axi4lite_driver] [WRITE] ADDR=0x000004c4 DATA=0x00006b86 WSTRB=4'b1010 BRESP=AXI_OKAY
# UVM_INFO ../tb/driver/axi4lite_driver.sv(162) @ 1145000: uvm_test_top.env.agent.drv [axi4lite_driver] [WRITE] ADDR=0x000008fc DATA=0x0000ba12 WSTRB=4'b0001 BRESP=AXI_OKAY
# UVM_INFO ../tb/driver/axi4lite_driver.sv(162) @ 1195000: uvm_test_top.env.agent.drv [axi4lite_driver] [WRITE] ADDR=0x00000f24 DATA=0x0000809d WSTRB=4'b0010 BRESP=AXI_OKAY
# UVM_INFO ../tb/driver/axi4lite_driver.sv(162) @ 1245000: uvm_test_top.env.agent.drv [axi4lite_driver] [WRITE] ADDR=0x00000330 DATA=0x00005275 WSTRB=4'b1010 BRESP=AXI_OKAY
# UVM_INFO ../tb/driver/axi4lite_driver.sv(162) @ 1305000: uvm_test_top.env.agent.drv [axi4lite_driver] [WRITE] ADDR=0x0000011c DATA=0x000065f5 WSTRB=4'b1111 BRESP=AXI_OKAY
# UVM_INFO ../tb/driver/axi4lite_driver.sv(162) @ 1355000: uvm_test_top.env.agent.drv [axi4lite_driver] [WRITE] ADDR=0x0000007c DATA=0x0000c4d4 WSTRB=4'b1001 BRESP=AXI_OKAY
# UVM_INFO ../tb/driver/axi4lite_driver.sv(162) @ 1405000: uvm_test_top.env.agent.drv [axi4lite_driver] [WRITE] ADDR=0x00000d70 DATA=0x0000da76 WSTRB=4'b0101 BRESP=AXI_OKAY
# UVM_INFO ../tb/driver/axi4lite_driver.sv(162) @ 1465000: uvm_test_top.env.agent.drv [axi4lite_driver] [WRITE] ADDR=0x0000022c DATA=0x0000c764 WSTRB=4'b0001 BRESP=AXI_OKAY
# UVM_INFO ../tb/driver/axi4lite_driver.sv(162) @ 1515000: uvm_test_top.env.agent.drv [axi4lite_driver] [WRITE] ADDR=0x000008fc DATA=0x00007c1c WSTRB=4'b1001 BRESP=AXI_OKAY
# UVM_INFO ../tb/driver/axi4lite_driver.sv(162) @ 1575000: uvm_test_top.env.agent.drv [axi4lite_driver] [WRITE] ADDR=0x000002e0 DATA=0x0000f797 WSTRB=4'b0011 BRESP=AXI_OKAY
# UVM_INFO ../tb/driver/axi4lite_driver.sv(162) @ 1635000: uvm_test_top.env.agent.drv [axi4lite_driver] [WRITE] ADDR=0x00000370 DATA=0x000090d7 WSTRB=4'b0010 BRESP=AXI_OKAY
# UVM_INFO ../tb/driver/axi4lite_driver.sv(162) @ 1685000: uvm_test_top.env.agent.drv [axi4lite_driver] [WRITE] ADDR=0x00000cd0 DATA=0x00003746 WSTRB=4'b0011 BRESP=AXI_OKAY
# UVM_INFO ../tb/driver/axi4lite_driver.sv(218) @ 1735000: uvm_test_top.env.agent.drv [axi4lite_driver] [READ ] ADDR=0x00000e0c RDATA=0x00000000 RRESP=AXI_OKAY
# UVM_INFO ../tb/driver/axi4lite_driver.sv(218) @ 1775000: uvm_test_top.env.agent.drv [axi4lite_driver] [READ ] ADDR=0x000008e8 RDATA=0x00000000 RRESP=AXI_OKAY
# UVM_INFO ../tb/driver/axi4lite_driver.sv(218) @ 1815000: uvm_test_top.env.agent.drv [axi4lite_driver] [READ ] ADDR=0x00000964 RDATA=0x00000000 RRESP=AXI_OKAY
# UVM_INFO ../tb/driver/axi4lite_driver.sv(162) @ 1865000: uvm_test_top.env.agent.drv [axi4lite_driver] [WRITE] ADDR=0x000007a0 DATA=0x00008408 WSTRB=4'b0100 BRESP=AXI_OKAY
# UVM_INFO ../tb/driver/axi4lite_driver.sv(218) @ 1905000: uvm_test_top.env.agent.drv [axi4lite_driver] [READ ] ADDR=0x00000fd8 RDATA=0x00000000 RRESP=AXI_OKAY
# UVM_INFO ../tb/driver/axi4lite_driver.sv(162) @ 1955000: uvm_test_top.env.agent.drv [axi4lite_driver] [WRITE] ADDR=0x00000130 DATA=0x00000d8a WSTRB=4'b0100 BRESP=AXI_OKAY
# UVM_INFO ../tb/driver/axi4lite_driver.sv(218) @ 2005000: uvm_test_top.env.agent.drv [axi4lite_driver] [READ ] ADDR=0x000001e0 RDATA=0x00000000 RRESP=AXI_OKAY
# UVM_INFO ../tb/driver/axi4lite_driver.sv(162) @ 2065000: uvm_test_top.env.agent.drv [axi4lite_driver] [WRITE] ADDR=0x000002f4 DATA=0x0000104d WSTRB=4'b0110 BRESP=AXI_OKAY
# UVM_INFO ../tb/driver/axi4lite_driver.sv(162) @ 2125000: uvm_test_top.env.agent.drv [axi4lite_driver] [WRITE] ADDR=0x00000804 DATA=0x0000468a WSTRB=4'b0001 BRESP=AXI_OKAY
# UVM_INFO ../tb/driver/axi4lite_driver.sv(162) @ 2175000: uvm_test_top.env.agent.drv [axi4lite_driver] [WRITE] ADDR=0x00000b10 DATA=0x00007007 WSTRB=4'b1001 BRESP=AXI_OKAY
# UVM_INFO ../tb/driver/axi4lite_driver.sv(162) @ 2235000: uvm_test_top.env.agent.drv [axi4lite_driver] [WRITE] ADDR=0x000001dc DATA=0x00002399 WSTRB=4'b0011 BRESP=AXI_OKAY
# UVM_INFO ../tb/driver/axi4lite_driver.sv(218) @ 2285000: uvm_test_top.env.agent.drv [axi4lite_driver] [READ ] ADDR=0x00000e18 RDATA=0x00000000 RRESP=AXI_OKAY
# UVM_INFO ../tb/driver/axi4lite_driver.sv(162) @ 2345000: uvm_test_top.env.agent.drv [axi4lite_driver] [WRITE] ADDR=0x0000072c DATA=0x0000ba74 WSTRB=4'b1101 BRESP=AXI_OKAY
# UVM_INFO ../tb/driver/axi4lite_driver.sv(162) @ 2395000: uvm_test_top.env.agent.drv [axi4lite_driver] [WRITE] ADDR=0x00000998 DATA=0x0000f875 WSTRB=4'b1101 BRESP=AXI_OKAY
# UVM_INFO ../tb/driver/axi4lite_driver.sv(218) @ 2445000: uvm_test_top.env.agent.drv [axi4lite_driver] [READ ] ADDR=0x00000ff4 RDATA=0x00000000 RRESP=AXI_OKAY
# UVM_INFO ../tb/driver/axi4lite_driver.sv(218) @ 2485000: uvm_test_top.env.agent.drv [axi4lite_driver] [READ ] ADDR=0x000008ec RDATA=0x00000000 RRESP=AXI_OKAY
# UVM_INFO ../tb/driver/axi4lite_driver.sv(162) @ 2535000: uvm_test_top.env.agent.drv [axi4lite_driver] [WRITE] ADDR=0x000009fc DATA=0x0000d711 WSTRB=4'b1011 BRESP=AXI_OKAY
# UVM_INFO ../tb/driver/axi4lite_driver.sv(218) @ 2575000: uvm_test_top.env.agent.drv [axi4lite_driver] [READ ] ADDR=0x0000042c RDATA=0x00000000 RRESP=AXI_OKAY
# UVM_INFO ../tb/driver/axi4lite_driver.sv(218) @ 2615000: uvm_test_top.env.agent.drv [axi4lite_driver] [READ ] ADDR=0x0000018c RDATA=0x00000000 RRESP=AXI_OKAY
# UVM_INFO ../tb/driver/axi4lite_driver.sv(162) @ 2665000: uvm_test_top.env.agent.drv [axi4lite_driver] [WRITE] ADDR=0x000004e8 DATA=0x0000126f WSTRB=4'b1011 BRESP=AXI_OKAY
# UVM_INFO ../tb/driver/axi4lite_driver.sv(162) @ 2725000: uvm_test_top.env.agent.drv [axi4lite_driver] [WRITE] ADDR=0x00000354 DATA=0x0000e3d8 WSTRB=4'b0111 BRESP=AXI_OKAY
# UVM_INFO ../tb/driver/axi4lite_driver.sv(218) @ 2765000: uvm_test_top.env.agent.drv [axi4lite_driver] [READ ] ADDR=0x00000e50 RDATA=0x00000000 RRESP=AXI_OKAY
# UVM_INFO ../tb/driver/axi4lite_driver.sv(218) @ 2805000: uvm_test_top.env.agent.drv [axi4lite_driver] [READ ] ADDR=0x00000c2c RDATA=0x00000000 RRESP=AXI_OKAY
# UVM_INFO ../tb/driver/axi4lite_driver.sv(162) @ 2865000: uvm_test_top.env.agent.drv [axi4lite_driver] [WRITE] ADDR=0x00000ea4 DATA=0x0000e3cb WSTRB=4'b1000 BRESP=AXI_OKAY
# UVM_INFO ../tb/driver/axi4lite_driver.sv(162) @ 2915000: uvm_test_top.env.agent.drv [axi4lite_driver] [WRITE] ADDR=0x00000cac DATA=0x000019ee WSTRB=4'b0111 BRESP=AXI_OKAY
# UVM_INFO ../tb/driver/axi4lite_driver.sv(218) @ 2955000: uvm_test_top.env.agent.drv [axi4lite_driver] [READ ] ADDR=0x0000081c RDATA=0x00000000 RRESP=AXI_OKAY
# UVM_INFO ../tb/driver/axi4lite_driver.sv(162) @ 3005000: uvm_test_top.env.agent.drv [axi4lite_driver] [WRITE] ADDR=0x00000640 DATA=0x00009fca WSTRB=4'b0111 BRESP=AXI_OKAY
# UVM_INFO ../tb/driver/axi4lite_driver.sv(218) @ 3045000: uvm_test_top.env.agent.drv [axi4lite_driver] [READ ] ADDR=0x000001fc RDATA=0x00000000 RRESP=AXI_OKAY
# UVM_INFO ../tb/driver/axi4lite_driver.sv(218) @ 3085000: uvm_test_top.env.agent.drv [axi4lite_driver] [READ ] ADDR=0x00000ad0 RDATA=0x00000000 RRESP=AXI_OKAY
# UVM_INFO ../tb/driver/axi4lite_driver.sv(162) @ 3145000: uvm_test_top.env.agent.drv [axi4lite_driver] [WRITE] ADDR=0x00000910 DATA=0x000007ca WSTRB=4'b0111 BRESP=AXI_OKAY
# UVM_INFO ../tb/driver/axi4lite_driver.sv(162) @ 3195000: uvm_test_top.env.agent.drv [axi4lite_driver] [WRITE] ADDR=0x00000bcc DATA=0x00009851 WSTRB=4'b1001 BRESP=AXI_OKAY
# UVM_INFO ../tb/driver/axi4lite_driver.sv(218) @ 3235000: uvm_test_top.env.agent.drv [axi4lite_driver] [READ ] ADDR=0x00000b3c RDATA=0x00000000 RRESP=AXI_OKAY
# UVM_INFO ../tb/driver/axi4lite_driver.sv(218) @ 3285000: uvm_test_top.env.agent.drv [axi4lite_driver] [READ ] ADDR=0x00000a0c RDATA=0x00000000 RRESP=AXI_OKAY
# UVM_INFO ../tb/driver/axi4lite_driver.sv(162) @ 3345000: uvm_test_top.env.agent.drv [axi4lite_driver] [WRITE] ADDR=0x00000494 DATA=0x0000d764 WSTRB=4'b1100 BRESP=AXI_OKAY
# UVM_INFO ../tb/driver/axi4lite_driver.sv(162) @ 3405000: uvm_test_top.env.agent.drv [axi4lite_driver] [WRITE] ADDR=0x000001b8 DATA=0x00007d04 WSTRB=4'b1011 BRESP=AXI_OKAY
# UVM_INFO ../tb/driver/axi4lite_driver.sv(218) @ 3445000: uvm_test_top.env.agent.drv [axi4lite_driver] [READ ] ADDR=0x00000400 RDATA=0x00000000 RRESP=AXI_OKAY
# UVM_INFO ../tb/driver/axi4lite_driver.sv(218) @ 3495000: uvm_test_top.env.agent.drv [axi4lite_driver] [READ ] ADDR=0x000009b4 RDATA=0x00000000 RRESP=AXI_OKAY
# UVM_INFO ../tb/driver/axi4lite_driver.sv(218) @ 3535000: uvm_test_top.env.agent.drv [axi4lite_driver] [READ ] ADDR=0x000008bc RDATA=0x00000000 RRESP=AXI_OKAY
# UVM_INFO ../tb/driver/axi4lite_driver.sv(162) @ 3585000: uvm_test_top.env.agent.drv [axi4lite_driver] [WRITE] ADDR=0x00000e1c DATA=0x00004192 WSTRB=4'b0010 BRESP=AXI_OKAY
# UVM_INFO ../tb/driver/axi4lite_driver.sv(162) @ 3635000: uvm_test_top.env.agent.drv [axi4lite_driver] [WRITE] ADDR=0x00000234 DATA=0x00003a99 WSTRB=4'b0111 BRESP=AXI_OKAY
# UVM_INFO ../tb/driver/axi4lite_driver.sv(162) @ 3685000: uvm_test_top.env.agent.drv [axi4lite_driver] [WRITE] ADDR=0x00000c00 DATA=0x0000a120 WSTRB=4'b1101 BRESP=AXI_OKAY
# UVM_INFO ../tb/driver/axi4lite_driver.sv(162) @ 3745000: uvm_test_top.env.agent.drv [axi4lite_driver] [WRITE] ADDR=0x00000960 DATA=0x0000c9cf WSTRB=4'b0101 BRESP=AXI_OKAY
# UVM_INFO ../tb/driver/axi4lite_driver.sv(162) @ 3795000: uvm_test_top.env.agent.drv [axi4lite_driver] [WRITE] ADDR=0x00000ef0 DATA=0x00009b6a WSTRB=4'b0001 BRESP=AXI_OKAY
# UVM_INFO ../tb/driver/axi4lite_driver.sv(218) @ 3835000: uvm_test_top.env.agent.drv [axi4lite_driver] [READ ] ADDR=0x00000e9c RDATA=0x00000000 RRESP=AXI_OKAY
# UVM_INFO ../tb/driver/axi4lite_driver.sv(162) @ 3885000: uvm_test_top.env.agent.drv [axi4lite_driver] [WRITE] ADDR=0x00000104 DATA=0x0000072e WSTRB=4'b1111 BRESP=AXI_OKAY
# UVM_INFO ../tb/driver/axi4lite_driver.sv(162) @ 3945000: uvm_test_top.env.agent.drv [axi4lite_driver] [WRITE] ADDR=0x00000744 DATA=0x0000153b WSTRB=4'b1000 BRESP=AXI_OKAY
# UVM_INFO ../tb/driver/axi4lite_driver.sv(218) @ 3995000: uvm_test_top.env.agent.drv [axi4lite_driver] [READ ] ADDR=0x0000099c RDATA=0x00000000 RRESP=AXI_OKAY
# UVM_INFO ../tb/driver/axi4lite_driver.sv(162) @ 4045000: uvm_test_top.env.agent.drv [axi4lite_driver] [WRITE] ADDR=0x0000098c DATA=0x00004b61 WSTRB=4'b1110 BRESP=AXI_OKAY
# UVM_INFO ../tb/driver/axi4lite_driver.sv(218) @ 4095000: uvm_test_top.env.agent.drv [axi4lite_driver] [READ ] ADDR=0x00000254 RDATA=0x00000000 RRESP=AXI_OKAY
# UVM_INFO ../tb/driver/axi4lite_driver.sv(218) @ 4145000: uvm_test_top.env.agent.drv [axi4lite_driver] [READ ] ADDR=0x00000d48 RDATA=0x00000000 RRESP=AXI_OKAY
# UVM_INFO ../tb/driver/axi4lite_driver.sv(162) @ 4195000: uvm_test_top.env.agent.drv [axi4lite_driver] [WRITE] ADDR=0x00000ce8 DATA=0x0000a5cf WSTRB=4'b0011 BRESP=AXI_OKAY
# UVM_INFO ../tb/driver/axi4lite_driver.sv(162) @ 4255000: uvm_test_top.env.agent.drv [axi4lite_driver] [WRITE] ADDR=0x00000eb4 DATA=0x000089fc WSTRB=4'b0110 BRESP=AXI_OKAY
# UVM_INFO ../tb/driver/axi4lite_driver.sv(218) @ 4295000: uvm_test_top.env.agent.drv [axi4lite_driver] [READ ] ADDR=0x00000d78 RDATA=0x00000000 RRESP=AXI_OKAY
# UVM_INFO ../tb/driver/axi4lite_driver.sv(162) @ 4345000: uvm_test_top.env.agent.drv [axi4lite_driver] [WRITE] ADDR=0x00000798 DATA=0x0000513d WSTRB=4'b1000 BRESP=AXI_OKAY
# UVM_INFO ../tb/driver/axi4lite_driver.sv(162) @ 4405000: uvm_test_top.env.agent.drv [axi4lite_driver] [WRITE] ADDR=0x00000ee4 DATA=0x00008743 WSTRB=4'b0111 BRESP=AXI_OKAY
# UVM_INFO ../tb/driver/axi4lite_driver.sv(218) @ 4445000: uvm_test_top.env.agent.drv [axi4lite_driver] [READ ] ADDR=0x00000e5c RDATA=0x00000000 RRESP=AXI_OKAY
# UVM_INFO ../tb/driver/axi4lite_driver.sv(162) @ 4495000: uvm_test_top.env.agent.drv [axi4lite_driver] [WRITE] ADDR=0x00000d60 DATA=0x0000fa4d WSTRB=4'b1111 BRESP=AXI_OKAY
# UVM_INFO ../tb/driver/axi4lite_driver.sv(218) @ 4535000: uvm_test_top.env.agent.drv [axi4lite_driver] [READ ] ADDR=0x00000014 RDATA=0x00000000 RRESP=AXI_OKAY
# UVM_INFO ../tb/driver/axi4lite_driver.sv(218) @ 4575000: uvm_test_top.env.agent.drv [axi4lite_driver] [READ ] ADDR=0x00000a44 RDATA=0x00000000 RRESP=AXI_OKAY
# UVM_INFO ../tb/driver/axi4lite_driver.sv(218) @ 4615000: uvm_test_top.env.agent.drv [axi4lite_driver] [READ ] ADDR=0x00000154 RDATA=0x00000000 RRESP=AXI_OKAY
# UVM_INFO ../tb/driver/axi4lite_driver.sv(218) @ 4665000: uvm_test_top.env.agent.drv [axi4lite_driver] [READ ] ADDR=0x00000e18 RDATA=0x00000000 RRESP=AXI_OKAY
# UVM_INFO ../tb/driver/axi4lite_driver.sv(218) @ 4705000: uvm_test_top.env.agent.drv [axi4lite_driver] [READ ] ADDR=0x00000160 RDATA=0x00000000 RRESP=AXI_OKAY
# UVM_INFO ../tb/driver/axi4lite_driver.sv(162) @ 4755000: uvm_test_top.env.agent.drv [axi4lite_driver] [WRITE] ADDR=0x0000004c DATA=0x00000aa2 WSTRB=4'b0111 BRESP=AXI_OKAY
# UVM_INFO ../tb/driver/axi4lite_driver.sv(218) @ 4795000: uvm_test_top.env.agent.drv [axi4lite_driver] [READ ] ADDR=0x000003e8 RDATA=0x00000000 RRESP=AXI_OKAY
# UVM_INFO ../tb/driver/axi4lite_driver.sv(218) @ 4845000: uvm_test_top.env.agent.drv [axi4lite_driver] [READ ] ADDR=0x00000064 RDATA=0x00000000 RRESP=AXI_OKAY
# UVM_INFO ../tb/driver/axi4lite_driver.sv(218) @ 4885000: uvm_test_top.env.agent.drv [axi4lite_driver] [READ ] ADDR=0x00000768 RDATA=0x00000000 RRESP=AXI_OKAY
# UVM_INFO ../tb/driver/axi4lite_driver.sv(162) @ 4935000: uvm_test_top.env.agent.drv [axi4lite_driver] [WRITE] ADDR=0x000001b4 DATA=0x0000daff WSTRB=4'b0001 BRESP=AXI_OKAY
# UVM_INFO ../tb/driver/axi4lite_driver.sv(162) @ 4985000: uvm_test_top.env.agent.drv [axi4lite_driver] [WRITE] ADDR=0x00000f1c DATA=0x000094a5 WSTRB=4'b0110 BRESP=AXI_OKAY
# UVM_INFO ../tb/driver/axi4lite_driver.sv(218) @ 5035000: uvm_test_top.env.agent.drv [axi4lite_driver] [READ ] ADDR=0x0000049c RDATA=0x00000000 RRESP=AXI_OKAY
# UVM_INFO ../tb/driver/axi4lite_driver.sv(218) @ 5075000: uvm_test_top.env.agent.drv [axi4lite_driver] [READ ] ADDR=0x000006c8 RDATA=0x00000000 RRESP=AXI_OKAY
# UVM_INFO ../tb/sequence/axi4lite_sequences.sv(270) @ 5075000: uvm_test_top.env.agent.seqr@@seq [tc015_stress_seq] Stress: 100/1000 transactions sent
# UVM_INFO ../tb/driver/axi4lite_driver.sv(218) @ 5115000: uvm_test_top.env.agent.drv [axi4lite_driver] [READ ] ADDR=0x00000c00 RDATA=0x00000020 RRESP=AXI_OKAY
# UVM_INFO ../tb/driver/axi4lite_driver.sv(218) @ 5155000: uvm_test_top.env.agent.drv [axi4lite_driver] [READ ] ADDR=0x00000cb0 RDATA=0x00003fea RRESP=AXI_OKAY
# UVM_INFO ../tb/driver/axi4lite_driver.sv(218) @ 5205000: uvm_test_top.env.agent.drv [axi4lite_driver] [READ ] ADDR=0x00000c70 RDATA=0x00000000 RRESP=AXI_OKAY
# UVM_INFO ../tb/driver/axi4lite_driver.sv(218) @ 5255000: uvm_test_top.env.agent.drv [axi4lite_driver] [READ ] ADDR=0x0000053c RDATA=0x00000000 RRESP=AXI_OKAY
# UVM_INFO ../tb/driver/axi4lite_driver.sv(162) @ 5315000: uvm_test_top.env.agent.drv [axi4lite_driver] [WRITE] ADDR=0x00000cfc DATA=0x000016a6 WSTRB=4'b1111 BRESP=AXI_OKAY
# UVM_INFO ../tb/driver/axi4lite_driver.sv(218) @ 5355000: uvm_test_top.env.agent.drv [axi4lite_driver] [READ ] ADDR=0x00000844 RDATA=0x00000000 RRESP=AXI_OKAY
